%YAML 1.1
%TAG !u! tag:unity3d.com,2011:
--- !u!114 &11400000
MonoBehaviour:
  m_ObjectHideFlags: 0
  m_PrefabParentObject: {fileID: 0}
  m_PrefabInternal: {fileID: 0}
  m_GameObject: {fileID: 0}
  m_Enabled: 1
  m_EditorHideFlags: 0
  m_Script: {fileID: 11500000, guid: ff202326860706c49af50d3d853023bd, type: 3}
  m_Name: Settings_131532768847886897
  m_EditorClassIdentifier: 
  playerMaxActiveQuests: 1
  defaultRewardRowUI: {fileID: 11462060, guid: ae760b2cdb27ec74e8b47e66373cf9b7, type: 2}
  defaultTaskRowUI: {fileID: 11480520, guid: 8f95899e623d6b144af6b9a0b71d7e4d, type: 2}
  defaultNodeUIPrefab: {fileID: 11405600, guid: 982f06a5bbe6fd54aa4065d72fdfd5bc,
    type: 2}
  playerDecisionNodeUI: {fileID: 11439442, guid: 7e3f2e6d20e5b9448a3f81ea52c986ad,
    type: 2}
  playerInputNodeUIPrefab: {fileID: 11422416, guid: 64236d8d729d64c48a84426822dc642f,
    type: 2}
  playerDialogueIcon: {fileID: 21300000, guid: f859d4f2f1181a64d8c088113a02be83, type: 3}
