%YAML 1.1
%TAG !u! tag:unity3d.com,2011:
--- !u!74 &7400000
AnimationClip:
  m_ObjectHideFlags: 0
  m_PrefabParentObject: {fileID: 0}
  m_PrefabInternal: {fileID: 0}
  m_Name: OverheadBin-Anim
  serializedVersion: 6
  m_Legacy: 1
  m_Compressed: 0
  m_UseHighQualityCurve: 1
  m_RotationCurves:
  - curve:
      serializedVersion: 2
      m_Curve:
      - serializedVersion: 2
        time: 0
        value: {x: 0, y: 0, z: 0, w: 1}
        inSlope: {x: 0.00000013314664, y: -0.7853758, z: 0.0000000017429852, w: -0.005139112}
        outSlope: {x: 0.00000013314664, y: -0.7853758, z: 0.0000000017429852, w: -0.005139112}
        tangentMode: -559038745
      - serializedVersion: 2
        time: 0.81666654
        value: {x: 0.00000008713294, y: -0.59832454, z: 0.00000006506524, w: 0.80125386}
        inSlope: {x: 0.00000005558375, y: -0.6292826, z: 0.00000014809672, w: -0.46990737}
        outSlope: {x: 0.00000005558375, y: -0.6292826, z: 0.00000014809672, w: -0.46990737}
        tangentMode: -559038745
      - serializedVersion: 2
        time: 1
        value: {x: 0.00000009415696, y: -0.70710677, z: 0.00000009415696, w: 0.70710677}
        inSlope: {x: 0.000000021916604, y: -0.5589772, z: 0.00000016734874, w: -0.5517103}
        outSlope: {x: 0.000000021916604, y: -0.5589772, z: 0.00000016734874, w: -0.5517103}
        tangentMode: -559038745
      m_PreInfinity: 2
      m_PostInfinity: 2
      m_RotationOrder: 4
    path: OverheadBinDoor/BinDoor
  m_CompressedRotationCurves: []
  m_EulerCurves: []
  m_PositionCurves:
  - curve:
      serializedVersion: 2
      m_Curve:
      - serializedVersion: 2
        time: 0
        value: {x: 0.26076034, y: 0, z: -0.000000076293944}
        inSlope: {x: 0, y: 0, z: 0}
        outSlope: {x: 0, y: 0, z: 0}
        tangentMode: -559038745
      - serializedVersion: 2
        time: 1
        value: {x: 0.26076034, y: 0, z: -0.000000076293944}
        inSlope: {x: -0.45753542, y: 0, z: 0.000000076293944}
        outSlope: {x: -0.45753542, y: 0, z: 0.000000076293944}
        tangentMode: -559038745
      - serializedVersion: 2
        time: 1.5
        value: {x: -0.19677508, y: 0, z: 0}
        inSlope: {x: -0.91507083, y: 0, z: 0.00000015258789}
        outSlope: {x: -0.91507083, y: 0, z: 0.00000015258789}
        tangentMode: -559038745
      m_PreInfinity: 2
      m_PostInfinity: 2
      m_RotationOrder: 4
    path: OverheadBinDoor/BinDoor
  m_ScaleCurves:
  - curve:
      serializedVersion: 2
      m_Curve:
      - serializedVersion: 2
        time: 0
        value: {x: 1, y: 1, z: 1}
        inSlope: {x: 0, y: 0, z: 0}
        outSlope: {x: 0, y: 0, z: 0}
        tangentMode: -559038745
      - serializedVersion: 2
        time: 1
        value: {x: 1, y: 1, z: 1}
        inSlope: {x: 0, y: 0, z: 0}
        outSlope: {x: 0, y: 0, z: 0}
        tangentMode: -559038745
      m_PreInfinity: 2
      m_PostInfinity: 2
      m_RotationOrder: 4
    path: OverheadBinDoor/BinDoor
  m_FloatCurves: []
  m_PPtrCurves: []
  m_SampleRate: 60
  m_WrapMode: 0
  m_Bounds:
    m_Center: {x: 0, y: 0, z: 0}
    m_Extent: {x: 0, y: 0, z: 0}
  m_ClipBindingConstant:
    genericBindings: []
    pptrCurveMapping: []
  m_AnimationClipSettings:
    serializedVersion: 2
    m_AdditiveReferencePoseClip: {fileID: 0}
    m_AdditiveReferencePoseTime: 0
    m_StartTime: 0
    m_StopTime: 1
    m_OrientationOffsetY: 0
    m_Level: 0
    m_CycleOffset: 0
    m_HasAdditiveReferencePose: 0
    m_LoopTime: 0
    m_LoopBlend: 0
    m_LoopBlendOrientation: 0
    m_LoopBlendPositionY: 0
    m_LoopBlendPositionXZ: 0
    m_KeepOriginalOrientation: 0
    m_KeepOriginalPositionY: 1
    m_KeepOriginalPositionXZ: 0
    m_HeightFromFeet: 0
    m_Mirror: 0
  m_EditorCurves:
  - curve:
      serializedVersion: 2
      m_Curve:
      - serializedVersion: 2
        time: 0
        value: 0.26076034
        inSlope: 0
        outSlope: 0
        tangentMode: 34
      - serializedVersion: 2
        time: 1
        value: 0.26076034
        inSlope: -0.45753542
        outSlope: -0.45753542
        tangentMode: 34
      - serializedVersion: 2
        time: 1.5
        value: -0.19677508
        inSlope: -0.91507083
        outSlope: -0.91507083
        tangentMode: 34
      m_PreInfinity: 2
      m_PostInfinity: 2
      m_RotationOrder: 4
    attribute: m_LocalPosition.x
    path: OverheadBinDoor/BinDoor
    classID: 4
    script: {fileID: 0}
  - curve:
      serializedVersion: 2
      m_Curve:
      - serializedVersion: 2
        time: 0
        value: 0
        inSlope: 0
        outSlope: 0
        tangentMode: 34
      - serializedVersion: 2
        time: 1
        value: 0
        inSlope: 0
        outSlope: 0
        tangentMode: 34
      - serializedVersion: 2
        time: 1.5
        value: 0
        inSlope: 0
        outSlope: 0
        tangentMode: 34
      m_PreInfinity: 2
      m_PostInfinity: 2
      m_RotationOrder: 4
    attribute: m_LocalPosition.y
    path: OverheadBinDoor/BinDoor
    classID: 4
    script: {fileID: 0}
  - curve:
      serializedVersion: 2
      m_Curve:
      - serializedVersion: 2
        time: 0
        value: -0.000000076293944
        inSlope: 0
        outSlope: 0
        tangentMode: 34
      - serializedVersion: 2
        time: 1
        value: -0.000000076293944
        inSlope: 0.000000076293944
        outSlope: 0.000000076293944
        tangentMode: 34
      - serializedVersion: 2
        time: 1.5
        value: 0
        inSlope: 0.00000015258789
        outSlope: 0.00000015258789
        tangentMode: 34
      m_PreInfinity: 2
      m_PostInfinity: 2
      m_RotationOrder: 4
    attribute: m_LocalPosition.z
    path: OverheadBinDoor/BinDoor
    classID: 4
    script: {fileID: 0}
  - curve:
      serializedVersion: 2
      m_Curve:
      - serializedVersion: 2
        time: 0
        value: 1
        inSlope: 0
        outSlope: 0
        tangentMode: 34
      - serializedVersion: 2
        time: 1
        value: 1
        inSlope: 0
        outSlope: 0
        tangentMode: 34
      m_PreInfinity: 2
      m_PostInfinity: 2
      m_RotationOrder: 4
    attribute: m_LocalScale.z
    path: OverheadBinDoor/BinDoor
    classID: 4
    script: {fileID: 0}
  - curve:
      serializedVersion: 2
      m_Curve:
      - serializedVersion: 2
        time: 0
        value: 1
        inSlope: 0
        outSlope: 0
        tangentMode: 34
      - serializedVersion: 2
        time: 1
        value: 1
        inSlope: 0
        outSlope: 0
        tangentMode: 34
      m_PreInfinity: 2
      m_PostInfinity: 2
      m_RotationOrder: 4
    attribute: m_LocalScale.y
    path: OverheadBinDoor/BinDoor
    classID: 4
    script: {fileID: 0}
  - curve:
      serializedVersion: 2
      m_Curve:
      - serializedVersion: 2
        time: 0
        value: 1
        inSlope: 0
        outSlope: 0
        tangentMode: 34
      - serializedVersion: 2
        time: 1
        value: 1
        inSlope: 0
        outSlope: 0
        tangentMode: 34
      m_PreInfinity: 2
      m_PostInfinity: 2
      m_RotationOrder: 4
    attribute: m_LocalScale.x
    path: OverheadBinDoor/BinDoor
    classID: 4
    script: {fileID: 0}
  - curve:
      serializedVersion: 2
      m_Curve:
      - serializedVersion: 2
        time: 0
        value: 0
        inSlope: 0.00000013314664
        outSlope: 0.00000013314664
        tangentMode: 0
      - serializedVersion: 2
        time: 0.81666654
        value: 0.00000008713294
        inSlope: 0.00000005558375
        outSlope: 0.00000005558375
        tangentMode: 0
      - serializedVersion: 2
        time: 1
        value: 0.00000009415696
        inSlope: 0.000000021916604
        outSlope: 0.000000021916604
        tangentMode: 0
      m_PreInfinity: 2
      m_PostInfinity: 2
      m_RotationOrder: 4
    attribute: m_LocalRotation.x
    path: OverheadBinDoor/BinDoor
    classID: 4
    script: {fileID: 0}
  - curve:
      serializedVersion: 2
      m_Curve:
      - serializedVersion: 2
        time: 0
        value: 0
        inSlope: -0.7853758
        outSlope: -0.7853758
        tangentMode: 0
      - serializedVersion: 2
        time: 0.81666654
        value: -0.59832454
        inSlope: -0.6292826
        outSlope: -0.6292826
        tangentMode: 0
      - serializedVersion: 2
        time: 1
        value: -0.70710677
        inSlope: -0.5589772
        outSlope: -0.5589772
        tangentMode: 0
      m_PreInfinity: 2
      m_PostInfinity: 2
      m_RotationOrder: 4
    attribute: m_LocalRotation.y
    path: OverheadBinDoor/BinDoor
    classID: 4
    script: {fileID: 0}
  - curve:
      serializedVersion: 2
      m_Curve:
      - serializedVersion: 2
        time: 0
        value: 0
        inSlope: 0.0000000017429852
        outSlope: 0.0000000017429852
        tangentMode: 0
      - serializedVersion: 2
        time: 0.81666654
        value: 0.00000006506524
        inSlope: 0.00000014809672
        outSlope: 0.00000014809672
        tangentMode: 0
      - serializedVersion: 2
        time: 1
        value: 0.00000009415696
        inSlope: 0.00000016734874
        outSlope: 0.00000016734874
        tangentMode: 0
      m_PreInfinity: 2
      m_PostInfinity: 2
      m_RotationOrder: 4
    attribute: m_LocalRotation.z
    path: OverheadBinDoor/BinDoor
    classID: 4
    script: {fileID: 0}
  - curve:
      serializedVersion: 2
      m_Curve:
      - serializedVersion: 2
        time: 0
        value: 1
        inSlope: -0.005139112
        outSlope: -0.005139112
        tangentMode: 0
      - serializedVersion: 2
        time: 0.81666654
        value: 0.80125386
        inSlope: -0.46990737
        outSlope: -0.46990737
        tangentMode: 0
      - serializedVersion: 2
        time: 1
        value: 0.70710677
        inSlope: -0.5517103
        outSlope: -0.5517103
        tangentMode: 0
      m_PreInfinity: 2
      m_PostInfinity: 2
      m_RotationOrder: 4
    attribute: m_LocalRotation.w
    path: OverheadBinDoor/BinDoor
    classID: 4
    script: {fileID: 0}
  m_EulerEditorCurves:
  - curve:
      serializedVersion: 2
      m_Curve:
      - serializedVersion: 2
        time: 0
        value: 0
        inSlope: 0.000015258789
        outSlope: 0.000015258789
        tangentMode: 34
      - serializedVersion: 2
        time: 1
        value: 0.000015258789
        inSlope: 0.000015258789
        outSlope: 0.000015258789
        tangentMode: 34
      m_PreInfinity: 2
      m_PostInfinity: 2
      m_RotationOrder: 4
    attribute: localEulerAnglesBaked.x
    path: OverheadBinDoor/BinDoor
    classID: 4
    script: {fileID: 0}
  - curve:
      serializedVersion: 2
      m_Curve:
      - serializedVersion: 2
        time: 0
        value: 0
        inSlope: -90
        outSlope: -90
        tangentMode: 34
      - serializedVersion: 2
        time: 1
        value: -90
        inSlope: -90
        outSlope: -90
        tangentMode: 34
      m_PreInfinity: 2
      m_PostInfinity: 2
      m_RotationOrder: 4
    attribute: localEulerAnglesBaked.y
    path: OverheadBinDoor/BinDoor
    classID: 4
    script: {fileID: 0}
  - curve:
      serializedVersion: 2
      m_Curve:
      - serializedVersion: 2
        time: 0
        value: 0
        inSlope: 0
        outSlope: 0
        tangentMode: 34
      - serializedVersion: 2
        time: 1
        value: 0
        inSlope: 0
        outSlope: 0
        tangentMode: 34
      m_PreInfinity: 2
      m_PostInfinity: 2
      m_RotationOrder: 4
    attribute: localEulerAnglesBaked.z
    path: OverheadBinDoor/BinDoor
    classID: 4
    script: {fileID: 0}
  m_HasGenericRootTransform: 0
  m_HasMotionFloatCurves: 0
  m_GenerateMotionCurves: 0
  m_Events: []
